1000
ioformat=1 dt=1 timeStepIndex=26983 boxLengths=8.4540991,8.4540991,8.4540991 numTypes=2 mass=1,0.57, columns=type,x,y,z,vx,vy,vz
0       1.284569       1.080699       1.145821 0.235282  0.0167049  0.379565 
0       1.249626       2.476260       1.697685 -0.111204  0.557709  -0.0232341 
0       1.260392      -2.797923      -2.496937 0.257036  0.576618  0.827035 
0      -1.312359       4.018104      -3.047436 0.273962  0.390856  0.0372713 
0      -2.315320      -1.616870      -3.120293 -0.553405  0.173878  -0.114308 
0      -2.544204      -0.789764      -3.738804 -0.139145  0.430577  -0.230755 
0       1.041142      -0.947049       3.513590 -1.18506  0.621658  -0.163259 
0       4.080309       2.243993       3.425138 -0.0894765  -0.154828  0.108024 
0      -1.619286       3.058387       2.963354 0.295317  0.000731677  0.270488 
0      -2.933371      -0.708586       2.977761 -0.0266267  -0.0774897  -0.0315565 
0      -3.506810       3.839470      -0.576665 0.429142  0.0981052  0.188004 
0       2.338323       0.015381       0.529623 0.490058  -0.284205  -0.55586 
0      -3.633858       3.802384      -2.396472 0.0927875  -0.656856  0.736644 
0      -2.832530       4.225556      -3.652115 -0.455688  -0.643291  -0.044682 
0       0.580511      -0.056126      -2.021263 0.316623  -0.565325  -0.502603 
0      -1.566956       0.094356      -0.023572 -0.173046  0.219581  -0.0113039 
0      -1.487346      -2.508664      -1.939939 -0.708318  0.0117865  -0.610201 
0       2.882746       2.344575       1.369636 0.0022333  0.270565  0.314061 
0       1.953337      -3.568567      -0.711455 -0.66695  0.232999  0.0925262 
0       2.040734       3.313176      -1.301330 -0.135231  -0.858185  -0.494957 
0       2.999360      -1.368645       1.545998 0.506253  0.507592  0.150399 
0       2.101170       2.602117      -2.115122 0.0650486  0.476915  -0.0126701 
0       2.984027      -3.386130       0.900245 -0.372588  1.26332  0.615293 
0      -4.172760       2.381406      -3.311843 -0.195471  0.943169  0.588444 
0       1.381917      -1.751121       2.092253 0.32678  -1.15319  0.0968113 
0       0.440256      -1.963646       1.874722 0.388261  0.426271  -0.365326 
0      -2.412928       0.648133      -0.364689 -0.801113  -0.633453  -0.615582 
0       2.974995      -2.176814       4.088529 -0.293726  0.502833  0.452872 
0      -3.935349       2.905238       4.170271 -0.346734  -0.370334  0.346236 
0      -0.609102      -3.711103      -2.909371 -0.194337  -0.164053  1.2365 
0      -2.254383      -1.020194       3.721682 -0.0146125  -0.265617  0.252062 
0       2.304379       1.579485       3.031826 0.169935  0.463455  -1.00102 
0      -1.772011      -0.038666       3.572355 -0.125941  0.333865  0.475946 
0       0.079443      -3.953933      -3.763750 -0.237262  -0.441602  -0.723472 
0       2.961661       4.113408       0.439047 -1.00342  0.462053  -0.733651 
0       1.796100      -3.472070      -1.805801 0.603857  0.792195  -0.322682 
0       2.400414      -1.616848      -2.274999 -8.19776e-06  -0.110029  -0.11775 
0      -4.006300      -0.729353       1.849971 -0.603825  0.169614  -0.263851 
0      -0.449046       1.905954      -3.421522 0.518517  -0.100028  0.545326 
0       1.828566      -3.975084      -3.551349 -0.528208  -0.389499  -0.875565 
0      -2.002050       3.588756       1.727681 0.781686  0.252831  -0.417912 
0      -2.201318       3.918627       0.723433 -0.0167754  0.623721  -0.705717 
0      -3.144616       1.550996      -3.531785 0.237617  0.0842816  -0.12634 
0       0.915815       1.303824      -0.422289 0.432292  -1.16231  1.08031 
0       4.022689      -2.003112       3.844484 -0.453379  0.0435541  0.523404 
0      -3.541922       1.691727       3.486567 -0.502239  -0.629343  0.192328 
0       1.954087      -1.524454       1.209307 0.297012  -0.102972  0.0320755 
0      -3.523356       0.782834       0.710486 0.0745312  -0.411834  1.02524 
0       3.980377       1.067257       2.157779 0.0282117  0.323803  -0.655777 
0       0.655032       3.860490       1.531635 -0.349458  0.406649  -0.0441534 
0       1.042510       2.424443      -2.596281 -0.618583  -0.35335  0.13807 
0       3.397514       1.017639       0.585948 0.329701  -0.924122  0.590264 
0      -1.625283       1.380058       3.129610 0.0640447  -0.372324  0.0936828 
0      -4.110556      -1.354460      -2.905316 -0.258566  -0.137779  -0.283748 
0      -0.214393      -3.851997      -1.923209 0.108487  0.00994894  0.458523 
0       3.996825       4.218632      -3.007560 0.0281548  0.201327  0.00991448 
0      -4.081357      -1.397049      -1.084992 0.233943  -0.0748816  -0.507787 
0       1.363754      -1.878700       4.055949 0.418786  0.36175  -0.462332 
0      -2.537763       4.059155       3.844361 -0.404452  0.127222  -0.928862 
0      -0.826496      -2.438048      -1.048908 0.302753  0.587741  -0.245883 
0       3.743238      -3.233540      -3.461520 0.371149  0.138993  0.542809 
0       3.475369      -2.897715      -0.547964 -0.562621  0.1534  -0.807093 
0       4.067051       0.569257       3.122599 0.394574  -0.572974  0.0363176 
0      -0.024180       0.162782      -1.187326 0.618463  -0.492803  0.702371 
0       0.388929       3.624804      -0.599771 0.486741  -0.426748  0.545447 
0      -1.051479       1.620532      -0.052508 -0.137189  -0.470131  0.204972 
0       2.402997       2.317134       0.446087 -0.768165  0.582131  -0.201053 
0      -0.421611       4.093971       2.335636 0.179867  0.0290929  -0.61605 
0      -0.394118       2.918683      -0.757704 -0.368422  -0.327923  1.06079 
0       3.119567       3.731960      -2.501405 -0.444149  -1.04098  0.539907 
0       3.455200      -0.468911       1.731227 0.460278  -0.28128  0.297961 
0       3.382647      -0.137349      -1.721843 -0.395416  -0.546612  -0.395768 
0      -0.667380      -4.047069       0.708399 -0.217401  -0.684158  -0.454226 
0      -3.905625      -0.763483       2.871742 0.250997  -0.0952634  -0.0419359 
0       1.588110       2.347492      -3.594807 -0.0283449  -0.033769  -1.24306 
0      -3.195881       1.648968       2.509208 0.75229  0.164604  -0.468351 
0       3.200674      -1.839283       2.527879 -0.230649  -0.559484  -0.444741 
0      -3.586917       2.844614      -0.819158 -0.0505175  -0.342609  0.803811 
0      -1.470965       4.029483       2.544008 -0.303953  1.43401  -0.759865 
0       0.402334      -2.529554       2.758255 -0.369121  -0.588724  -0.144006 
0       2.372348      -1.821676      -1.226544 0.934672  0.528967  0.251145 
0      -2.653502       3.219672       3.144046 0.0111756  0.262684  0.688795 
0      -2.805963       1.716900      -0.409008 0.493766  -0.589244  0.295209 
0       3.374043      -0.266240      -4.150393 -0.926321  0.474059  0.478678 
0       1.497142       3.951962       0.888092 -0.61669  0.442235  -0.319901 
0       2.636622       2.177902      -3.753098 0.39339  -0.139811  -0.938148 
0      -1.951571       1.608728       1.264977 0.965361  -1.28082  1.02031 
0      -1.576203      -0.178837       1.765787 -0.20665  0.395124  -0.39951 
0       2.458006       0.296439       4.061852 0.211202  -0.239292  -0.0274947 
0       0.138493      -3.958575      -0.023062 0.146042  0.503509  0.192058 
0      -3.091155       0.937376      -2.556639 -0.453359  -0.00114084  0.631479 
0       1.265553      -0.592201      -0.873798 0.212948  0.29862  -0.840899 
0      -3.845537      -3.096786      -0.571608 -0.217144  0.152895  -0.671825 
0       3.658706       0.667551       4.225498 -0.126848  0.0543453  0.84172 
0      -0.184576      -2.173410      -3.457147 -0.598559  -0.400321  0.0603803 
0       3.121505      -3.407876       3.325989 -0.701157  -1.01105  0.0175023 
0      -0.947336       1.986138       1.497490 0.302927  -0.0886222  -0.66261 
0      -0.866857      -1.560571       0.667234 -0.0181724  -0.256922  -0.27645 
0       2.163220       3.398875      -2.794392 0.0672223  -0.337714  0.0974848 
0      -0.260540      -1.247901       1.559260 -0.0853658  -0.55189  0.490577 
0      -0.416711       2.012434      -1.440450 -0.490525  -0.994437  -0.378311 
0      -1.921823      -1.302847       0.476281 -1.2188  0.801815  0.00744753 
0      -2.494652       0.703229       1.055245 0.695145  0.234489  -0.273462 
0      -2.251135       0.049514       2.587120 0.320647  0.31752  -0.813252 
0      -2.922766      -3.580043       1.624895 0.58493  0.60594  -0.0345501 
0       1.904535       4.142058       1.872147 0.334713  -0.938687  0.392274 
0      -0.177899      -2.994662      -0.389563 0.473514  0.310397  0.134981 
0      -1.106043      -3.876809      -1.437249 0.404258  -0.279025  -0.454556 
0      -0.958102       2.664951       0.286574 0.228961  0.714732  0.332961 
0      -0.268441      -0.752629       0.290859 0.27721  0.0799261  -0.568018 
0       2.438186       0.511688       3.000462 -0.0278965  -0.0484869  -0.588229 
0      -3.945926      -3.239868      -1.650930 0.626974  0.200468  0.532468 
0       2.263588      -0.972378      -0.516433 -0.206306  -0.0671534  0.223779 
0       3.304566      -0.159177       2.838558 0.662005  0.00876216  -0.266603 
0       1.648025       4.004605      -1.963922 -0.0826667  -0.273942  0.33453 
0      -2.563234       2.140411       0.580536 0.621636  0.0580195  0.405556 
0       3.114389       0.856260      -1.767497 0.0428333  0.0114075  -0.230425 
0      -3.224818       4.155349       0.833964 -0.00365909  -1.15833  0.550339 
0       2.534156      -0.534450      -2.252378 0.376707  -1.08812  -0.710618 
0      -3.511547       0.403399      -1.193954 0.406701  0.214657  0.398569 
0      -0.809238      -0.281036       3.145055 -0.269583  0.200435  0.121415 
0       1.286613       3.433474       2.332479 0.608501  -0.159513  0.00480325 
0       2.906393       2.096871      -0.535190 0.470812  0.0374993  -0.0451443 
0       4.152047      -0.917637       3.891283 0.0048  0.085095  0.19561 
0      -3.566673      -1.123078      -3.830880 0.529926  0.577423  0.260736 
0       0.657753       1.621788       1.967974 -0.10608  0.352943  -1.25656 
0       0.874866       1.971434       2.964136 0.126012  -0.576032  0.148137 
0       2.174880       3.392221       0.246551 -1.2979  -0.232082  -0.850318 
0      -3.236092       2.766464      -2.461734 0.295718  -0.319066  -0.387135 
0       0.722245       0.286562      -0.388680 0.258711  -0.253496  -0.142466 
0      -1.381229      -3.377759       2.908710 -0.635303  -0.460328  0.209974 
0       3.424929       3.308805       1.041610 0.852529  0.348278  0.364211 
0      -3.819309       0.293285       1.661591 -0.555796  0.330369  -0.0459509 
0      -0.060674      -0.855853       3.660019 0.214628  -0.296315  -0.519766 
0      -1.136407       2.265846       3.482174 0.886697  -0.863344  -0.0408697 
0       0.440904       3.274784      -2.543757 0.149765  -0.801162  -1.1237 
0      -1.895546       3.230264      -0.776902 0.603946  -1.15361  -0.28547 
0      -3.125349      -2.398521      -0.154753 -0.00543183  0.484216  0.459407 
0       2.350322      -1.368234       4.116053 -0.34845  -0.260389  0.0930723 
0      -4.129903       1.902006       1.687222 -0.33093  -0.488542  -0.00937047 
0      -3.348888       0.201008      -0.041674 -0.0634446  0.0170847  0.0870967 
0      -0.309262      -3.389981       2.962182 0.78539  -0.0917906  -0.484398 
0      -0.093701       2.656923      -4.116930 0.711325  -0.831662  -0.609008 
0       1.248403      -3.039342       0.835836 0.386905  -1.42441  0.783 
0       3.968872      -0.430314      -2.489545 0.0401274  -0.598253  0.792853 
0      -2.080378       0.246783      -3.898348 0.0322005  0.826782  -0.865922 
0      -1.333750       1.940975      -3.944357 -0.547828  0.653074  1.63349 
0      -3.034904      -0.574061      -2.028525 -0.228356  0.273276  -0.234025 
0       0.306949      -0.877208      -3.102069 -0.236872  0.0787898  0.411878 
0      -1.697358      -2.438651      -0.505783 0.113706  0.700364  0.315756 
0       3.711944      -2.577019       2.011461 0.370184  0.508843  0.12832 
0      -0.830612       2.236961      -2.480273 -0.24394  0.374595  -0.191844 
0      -4.208043       4.065590       3.976376 0.0494146  -0.549847  1.01048 
0       1.624890      -0.761154       0.604460 -0.253302  0.553291  -0.00661608 
0      -0.732879      -1.349934      -4.009545 -0.378815  -0.930275  0.282705 
0       1.214782      -3.771970       0.109973 0.0123661  0.650727  0.209875 
0       1.945832      -2.685356       2.387318 -0.263369  -0.0651892  0.0426297 
0      -2.932747       0.711949       2.011827 0.757109  -0.0973106  0.0518284 
0       3.609695       2.740424      -2.448989 1.11375  -0.352725  0.331869 
0       3.787265      -0.736103       0.156447 -0.52775  0.213119  -0.65051 
0      -3.153144      -1.417898      -0.483410 -0.0110185  -0.13038  0.626694 
0      -0.236287      -1.860296       3.213882 -0.0560553  0.225682  0.215093 
0      -2.076323      -0.332069       0.857294 -0.234653  -0.384656  0.100746 
0      -3.719780       1.480112      -1.024424 0.513037  -0.698789  -0.718929 
0      -1.745805      -2.412638      -3.711693 -1.13765  -0.819291  -0.952216 
0       1.827687       0.089321       2.242581 0.597853  -0.205103  -0.131171 
0       2.854081      -4.148182       2.336411 0.421507  -0.272801  0.200124 
0      -0.966909      -1.383551      -2.166220 -0.170109  0.430014  -0.748468 
0       4.046134      -3.218807       2.808384 -0.0535013  0.190163  0.0597884 
0      -2.284826      -3.234149      -2.262173 0.0488521  0.0198129  -0.0668695 
0      -3.379979      -1.257250       1.213246 0.100914  0.140275  1.44537 
0      -0.460233      -3.151900       1.428837 -0.0983142  -0.0564184  0.147922 
0       1.809037      -2.495303      -0.591937 -0.0924085  -0.848042  -0.0128241 
0       2.588840      -2.444611       3.144712 1.49232  -0.162818  -0.250009 
0       1.039344      -2.901059       3.530661 1.1086  -0.17359  -0.572984 
0       4.055870       1.446820      -2.808331 0.777448  -0.369251  -0.616122 
0       2.432967       3.184609       3.668507 1.4004  -0.296579  -0.0302236 
0       0.588971      -3.420449       1.587714 -1.42172  -0.143558  0.961888 
0      -0.408933       3.734876       1.413210 0.600057  -0.416649  0.11905 
0      -1.594356       3.759318      -4.124395 -0.702894  -0.130792  0.582423 
0       1.280112       3.153527      -0.164820 0.282684  -0.44389  -0.277131 
0       1.364797       2.502621      -0.944351 0.381921  -0.131098  -0.687356 
0       3.670538      -2.270474      -3.005792 -0.789573  -0.450442  0.118892 
0       0.764997       1.389423      -2.362341 -0.432446  -0.518638  -0.495741 
0       0.724077       0.013193       2.291757 -0.63647  0.276429  1.0666 
0       2.239210       0.792719      -1.184562 0.386628  -0.970538  0.316078 
0      -2.705490      -4.192324      -1.920547 0.769703  0.107773  0.0490446 
0      -0.917433      -2.688304      -2.932242 -0.430332  0.169879  -0.551086 
0      -2.698300      -2.526571       3.889148 0.539378  -0.549205  -0.15799 
0       2.762871      -1.690756      -3.235145 0.0624419  -1.11029  -0.289725 
0       2.550429       1.048657      -2.691237 -0.853366  0.515029  0.677113 
0      -3.802780      -4.067844       2.970187 -0.399555  -0.3995  0.362121 
0      -1.783824      -1.774980       2.247785 0.949116  -0.330112  -0.51028 
0       0.336678      -2.974055      -4.127665 0.0842525  0.10488  0.334681 
0      -1.031636      -0.980825       2.349800 -0.872815  -0.823281  -0.470371 
0      -2.199286       1.552227      -1.580001 0.323197  -0.784182  0.0443296 
0      -0.684227       3.315464      -2.499392 0.792901  0.178584  0.909946 
0      -0.032383       1.452670       0.183512 -0.0820971  0.0175353  -0.205852 
0       3.121832      -0.333031      -0.677439 0.0813015  -0.370613  -0.831956 
0       2.324774      -2.556061      -3.695529 -0.059254  0.0495048  -0.397762 
0       3.405082      -0.008909       0.827865 0.638032  -0.765649  -0.153441 
0      -1.618337      -3.826209       0.249294 0.522434  0.169194  0.259472 
0       0.689986      -2.254971       0.806698 0.540497  1.00354  0.275901 
0      -3.411897      -2.412218       2.297905 0.5296  -1.31952  -0.348453 
0      -3.596613      -0.798622       0.251203 -0.249246  -0.761584  0.626699 
0      -1.099495      -2.119858       3.872983 0.486064  -0.277122  0.214227 
0      -2.145089      -2.429978       0.377173 -0.600863  0.0985837  -1.20426 
0       4.014534       2.584926      -1.466411 -0.504375  -0.519643  0.493734 
0      -0.800083      -0.739077      -3.092985 0.473186  0.809574  0.28897 
0       0.894671       2.669188       0.751695 0.872497  0.485471  -0.313411 
0      -2.325278       0.173546      -2.406076 0.559381  -0.473831  0.113634 
0       1.808516      -0.896524       2.669570 0.184208  -0.211907  -0.230555 
0      -4.167490      -1.803921       2.704070 0.353463  -0.436487  0.751433 
0       2.831686      -3.322404      -1.994720 0.556354  0.140839  0.972881 
0      -3.400585       0.593161       3.581847 -0.0712672  0.287971  0.289216 
0      -0.985929       0.666025      -2.456047 0.495502  0.187804  0.583687 
0      -1.690000       1.575640      -2.571124 -0.837988  -0.199505  -0.316853 
0       3.227950       4.202953      -1.563692 0.226686  -0.772314  -0.598307 
0       1.582913       0.731040      -2.820120 0.804565  0.0327291  0.323875 
0      -3.716687      -2.882971       1.407424 -0.0525145  0.228811  -0.0423796 
0       2.735099       0.584372      -0.240771 0.255059  -0.570101  0.0183153 
0       2.170938       0.672622       1.451569 0.349422  0.240288  -0.603177 
0       1.622513       0.047010      -1.724700 -0.321397  0.448147  0.441479 
0       2.133578      -1.817948       0.229619 -0.315166  -0.350547  0.113092 
0      -0.730542       0.606091       0.441561 -0.19735  0.119191  -0.0287669 
0      -0.407076      -0.766601      -0.760084 0.583517  0.740117  -0.0151052 
0       1.457251       1.844045       0.283582 0.251808  0.43477  0.0567259 
0      -1.991105      -3.262619       1.154521 0.245287  0.349591  -0.224356 
0      -1.846883      -3.430028      -0.722058 0.924212  0.495968  0.483214 
0       1.336590      -1.780145      -2.466089 -0.947708  0.335806  0.864655 
0      -2.371872      -3.259826      -3.352243 -0.399383  0.223615  -0.399137 
0      -2.535676       4.197426      -0.881142 0.481821  0.915977  -0.423127 
0      -0.726380       0.407403       1.506325 -0.666787  0.566664  -0.535142 
0       2.971997       2.228555       3.652159 -0.320947  0.407023  -0.776682 
0      -3.046827      -3.349409       2.683485 0.973076  0.357582  0.231038 
0       3.930184       2.592345       2.441403 -1.61572  0.102674  0.218568 
0      -0.455756       1.289267       2.141943 -0.588399  -0.135001  1.30252 
0       0.247638       1.002663      -3.605827 -0.914393  -0.253016  0.126637 
0       3.700556       1.629547      -1.176405 -0.13578  0.748636  0.981396 
0       1.415079       1.302982       3.634515 -0.76183  0.129992  0.125094 
0      -0.537416       3.611870       4.080172 -0.277029  -1.46334  0.0522018 
0       0.047916       0.591186      -2.700966 -0.747302  -0.0167982  -0.604895 
0       0.860133       0.072337       0.777205 -0.0297259  0.455871  -0.0911428 
0      -3.481451      -1.663728      -2.001734 0.284978  -0.082741  -0.188461 
0      -3.944532       3.267459       0.902471 0.211227  0.69686  -0.676423 
0       0.726801      -2.589216      -0.927857 1.20011  0.389072  0.166807 
0       3.020121      -2.479279       0.378534 -0.528603  -0.766281  0.162276 
0      -3.036339      -2.029231      -3.731153 -0.752637  -0.497267  -0.234948 
0      -2.022208       3.604544      -2.409651 -0.8346  -0.120552  -0.422431 
0       2.786672      -3.214689       1.958982 0.208795  -0.512746  0.328599 
0      -4.027911       0.450571      -2.896150 -0.244424  -0.410372  -0.168844 
0      -1.010802       3.492626      -1.391394 -0.308999  0.55543  1.11636 
0       1.212950      -0.295616      -3.143352 0.0255644  -0.171881  -0.0519506 
0       1.716333       2.799731       3.005818 0.393538  0.809788  0.123049 
0       1.366263      -2.998276      -3.617709 1.25409  -1.19174  -0.945583 
0      -2.163322       1.777744       2.268430 0.157221  -0.527849  0.592583 
0       0.825335      -1.700517      -3.461953 -0.49233  0.033977  -0.247716 
0       1.090568       3.503870       3.362233 0.226383  -0.635602  0.172366 
0      -0.062287       2.364124       0.852654 -0.0159716  0.0671866  0.531489 
0      -0.068432       2.354162       3.207745 0.784458  -0.218889  -0.761764 
0      -3.278582       2.465029       1.321304 0.0959366  1.21556  -0.946279 
0       2.460757      -4.202206       3.368608 -0.248372  -0.0998119  0.238058 
0       0.601202       3.907599      -1.678376 0.770048  -0.175039  -0.568817 
0      -3.743639       0.749260      -3.859763 -0.585761  0.629461  0.92279 
0      -2.075981       1.331215      -3.666121 -0.0332119  0.0511291  -0.173003 
0       3.383878       2.983114      -0.583559 0.140656  0.196542  0.0558084 
0       3.025131      -0.608542      -3.141587 -0.0204131  0.423965  -0.777942 
0       2.451086       3.673000      -3.800861 0.61356  -0.465029  -0.106098 
0       2.709752      -3.379964      -3.098033 0.17218  -0.112138  0.0676488 
0       2.794396      -1.024588       3.159915 0.359795  0.410426  0.064738 
0       2.734483       1.101081      -3.762555 0.829627  0.638808  0.242832 
0       0.892999       3.089761      -3.994767 -0.333763  -0.620252  0.0645704 
0       1.262130      -3.581331       2.400615 0.36606  0.728075  -0.418044 
0      -3.716188      -2.844847       3.639752 -0.392299  -0.19001  0.494197 
0      -2.720241       3.201937      -3.181691 -0.518398  -0.464743  0.0116853 
0      -2.902874       2.561226       3.855641 -0.3131  -0.763195  -0.0955673 
0      -0.227016      -2.539019       0.549771 -0.0010372  0.355844  -0.651576 
0      -3.922912       3.511431       2.317570 -0.194514  -0.131665  0.402573 
0       1.413333      -3.894705       3.326321 -0.435287  0.369115  0.719086 
0      -0.128737      -1.926912      -1.752594 -0.546764  -0.418933  0.32668 
0       3.046438       1.299556       1.572707 -0.848253  -0.180505  -0.70567 
0       1.335900       1.276500      -3.727836 0.517272  0.546486  0.563882 
0       3.463573      -1.968787      -1.113624 0.495933  0.668558  -0.0666147 
0      -3.714079      -2.107506       0.747190 0.0576871  0.125892  -0.396481 
0       3.655722       3.995367       1.785841 0.344501  0.704996  -0.212618 
0      -0.132138       0.612866       3.883341 -0.00545798  0.823692  -0.0222421 
0       1.753804      -0.521185      -4.176547 1.15195  -0.272516  -1.02039 
0      -3.538989       1.782263      -2.118201 -0.534844  -0.00166752  -0.648444 
0       0.597013      -1.136039      -2.115865 -0.621631  -0.140886  -0.743475 
0       0.919526       3.884493      -3.307449 -0.255529  -0.513923  -0.143914 
0      -2.500123       0.460290      -1.464929 0.0311268  -0.802757  -0.350201 
0      -1.501610       2.658568       1.962345 -0.203479  -0.4316  -0.0589645 
0      -2.452550      -0.962141      -1.241647 -0.551172  -0.192738  -0.548102 
0       3.657472      -2.577020      -1.931403 -0.64312  0.400997  -0.0591874 
0       0.333258      -2.882966      -1.981280 0.490996  0.191314  -0.159904 
0      -3.227070      -2.671198      -2.204189 -0.512349  0.0867902  0.251219 
0      -4.075209       4.197707      -1.493968 -0.0223174  -0.00482154  0.712105 
0      -2.607105       2.442678      -1.075423 0.133012  -0.0845881  0.954834 
0      -4.030860      -0.462176      -1.628389 0.184028  -0.282215  0.784953 
0      -0.743158       0.824409       3.019313 -0.436553  -0.667628  -0.261394 
0       0.742741      -1.268614       0.235988 0.359903  0.00211204  -0.323973 
0      -1.386035      -2.793408       1.979621 -0.277499  -0.521103  -0.745912 
0      -1.422536      -0.536275      -0.958220 0.094346  0.46573  -0.169611 
0       0.666874       1.844896      -1.382693 0.677478  -0.0400167  0.572167 
0      -1.923483       3.007441       0.311154 0.416034  0.224052  -0.99658 
0      -1.129313       0.378887      -1.445683 -0.359188  0.550584  -0.479295 
0       0.884493       0.415882       3.359576 0.748085  0.44834  -0.0927345 
0       3.027461      -3.885810      -0.562013 -0.24735  -0.369137  -0.462016 
0       4.030272      -3.668636       1.120035 -1.21191  -0.773327  -0.313178 
0      -2.950732       3.209663       2.054314 0.919319  0.108734  0.939576 
0      -2.774969      -1.488057       2.031658 -0.0756247  0.102436  0.336004 
0      -2.027854       2.752273      -4.002118 -0.463623  0.422175  0.135518 
0      -3.917006      -3.938737       0.190046 -0.096365  0.474599  -0.596821 
0       3.521836       3.729000      -3.882934 0.273648  -0.612945  -0.434717 
0       0.016156       3.443037       3.072702 0.481819  -0.160526  -1.05069 
0      -4.188306       1.597661       0.608387 -1.59583  0.24472  -0.0255313 
0      -1.505120       0.075645      -3.123863 0.210788  -0.377024  -0.226749 
0       3.076834       1.903227      -2.687471 -0.1828  0.263365  -0.377097 
0       2.120851       1.834574      -1.292489 -0.403617  -0.847749  -0.261355 
0      -2.048449      -1.633496      -2.068569 -0.223269  0.309532  0.35457 
0      -4.186521       2.582215       0.029198 0.442629  0.223129  0.0669327 
0      -1.961699      -2.016357       3.282629 0.0946945  0.632263  -0.354816 
0       0.519423      -1.452010      -0.811910 -0.355511  0.54889  -0.523006 
0      -0.079621      -0.235621       1.137304 0.00159583  -0.376655  0.107539 
0      -1.266916       1.428999      -1.083093 -0.814312  -0.358916  0.176486 
0      -3.406161      -2.877397      -3.287704 0.731355  -0.613195  0.581457 
0       2.172218       2.352783       2.213157 -0.381772  0.643964  0.0288311 
0       3.724453      -2.028600       1.072167 -0.114611  -0.647099  -1.02764 
0      -2.288147      -3.373672       3.469325 0.337402  0.832419  -1.11872 
0      -3.958400      -3.434148      -4.041124 0.225237  0.489823  0.506488 
1      -2.007110      -2.157308      -1.897285 0.495533  -0.863946  -0.231797 
1      -2.016074       4.147495       4.093402 -0.815686  0.577337  -0.0136728 
1      -1.749957       1.628908      -1.253777 -0.731273  -0.148973  -0.100796 
1      -2.014384      -0.052037       2.092633 0.419462  0.544408  -0.640324 
1       1.988876      -3.904410       3.362854 -0.924114  -0.318094  0.890354 
1       0.018760      -2.949026       2.757177 0.864637  1.62579  0.0134729 
1       4.192871       0.584223       1.932869 0.316981  0.14044  1.00176 
1       1.956559      -0.445540       2.355808 -0.334817  0.0448068  -0.820003 
1       0.065273      -3.239986       1.703757 0.531778  0.660889  -0.676256 
1       0.903327       2.368084      -1.268929 -0.267693  0.16329  0.108162 
1      -0.095426       3.698362       2.545577 0.609545  -0.285535  0.716318 
1      -3.792302      -1.607714      -1.531231 0.949136  0.323802  0.634744 
1       1.430768       4.214863      -3.254173 -0.218253  -0.390922  0.295623 
1       3.908948      -2.717089      -3.236760 0.216103  0.664463  -0.13633 
1      -3.194306      -3.089265       1.466850 1.12042  -0.42915  -0.741311 
1       1.378771       3.335965       2.903628 0.776476  -0.835429  1.49318 
1       1.588822      -1.760901       1.540229 -0.581092  1.32682  0.638465 
1      -1.648643       3.238485      -2.211404 -1.17978  0.444012  0.419701 
1       2.505934      -1.527475       1.360951 -0.944486  -0.401212  0.546375 
1       0.660307      -2.886661      -2.393556 -0.0991238  0.863043  -0.285426 
1      -1.604248       3.630548       2.924807 0.376051  -1.03583  0.589891 
1      -2.152424      -2.750255       0.892832 -0.447926  -0.444464  0.541386 
1       3.608956      -2.455256      -2.466224 0.545915  -0.168757  -1.0812 
1       2.936473      -0.138387       0.560111 0.719904  -0.281862  -0.000865334 
1      -0.001938      -0.754786       1.338312 0.563391  0.153148  -0.489583 
1       2.993541       3.776284      -3.656571 0.516361  0.310194  0.29131 
1       0.950577       1.364567       1.505349 -0.401703  -0.242495  -0.216092 
1      -3.450809       2.327942      -2.228935 0.51953  0.514486  -0.868204 
1       0.747181       0.218467       2.816035 0.236732  0.649593  -0.244979 
1      -0.167815       1.410143      -3.458553 -0.0313967  -1.12304  0.0438708 
1      -0.383648      -3.836162       2.576889 0.178729  1.0943  -1.65914 
1      -2.139096       2.951444       3.109238 -0.703818  -0.669906  0.352307 
1      -0.588234      -1.351362       1.131012 -0.292937  -0.204788  0.720062 
1      -2.628128      -2.214638      -4.079280 -0.0574456  0.0317186  0.57131 
1       2.425213       0.826664      -0.624490 -0.640509  -0.109554  -0.7442 
1      -3.576303      -3.260251      -3.642346 -0.383258  -0.141846  -0.502314 
1       1.305362       0.799375       3.410289 -1.52228  0.394721  0.0952316 
1      -3.722756      -2.668463       0.897655 0.190474  -0.387635  -0.556375 
1       1.073069      -1.754127      -2.972790 0.153666  0.643476  -0.707618 
1      -1.924322       0.175663       3.068159 -1.19359  -0.309717  -0.140585 
1      -1.782068      -3.542463       0.699709 0.473957  -0.0447256  -0.422493 
1      -1.098227       3.629622       4.078510 -0.569984  0.44892  0.796238 
1      -2.659998       0.641237      -2.470475 0.802698  1.08034  0.6335 
1      -0.496476      -1.843258       2.731704 -0.929842  -0.633235  -0.379818 
1      -3.976541       0.099575      -1.427351 -0.668605  0.20046  0.198901 
1       1.511175      -2.288684       2.245847 0.012506  0.620411  0.855556 
1      -0.277665       2.373516      -3.633363 0.277307  1.08612  1.47489 
1      -3.121042       1.438317      -2.236815 -0.0498701  0.167558  -0.193511 
1      -0.268609      -3.862998      -3.304747 -0.764553  -1.79887  1.00318 
1      -1.639234      -3.123760       1.603406 -0.146683  -0.878752  -0.711888 
1      -0.459700      -2.362418      -3.019786 0.24786  0.381651  -0.15434 
1       3.283591       3.200330      -2.561219 -0.27497  -0.420884  0.367649 
1       1.469715       1.392574       0.744561 -0.473236  0.803654  -0.162349 
1       0.995916       0.723894      -0.585456 0.0497227  -0.256183  -0.637356 
1       2.786416       1.995626       0.043381 0.43024  -0.42635  -1.72211 
1       2.922250       0.124417      -0.479284 -1.28934  -0.4837  -0.305124 
1       3.080944      -3.745389      -1.726809 -1.13287  -1.02824  0.20119 
1      -3.311059      -3.767699       2.934137 1.21594  -0.655321  -0.704684 
1       1.994596       2.897957       3.515591 -0.719994  -1.105  -0.501272 
1       3.352682       3.663973       1.498918 -0.0812441  -0.015851  -0.384669 
1      -2.218606      -3.798740      -0.939056 -0.974717  -0.186878  0.340482 
1       2.828918      -2.963096       0.583962 -0.386771  0.403431  0.936062 
1       1.912248       1.431725       3.426686 1.26677  0.605073  0.196908 
1      -0.681749       3.352783      -0.969833 -0.804409  -0.492083  0.0291605 
1       2.036608       3.426506      -3.385259 0.457089  0.240157  0.142214 
1      -2.392503       0.413220      -0.919620 -0.556718  1.03213  0.460677 
1       1.742406       1.032737       1.468891 0.0207765  -0.704654  1.1444 
1      -3.194533      -2.527248       3.649200 0.466976  0.528214  0.388729 
1      -3.797673       3.831535       2.729889 -0.45329  -1.12173  -1.07815 
1      -0.492125       2.058384      -2.876711 0.108813  0.78655  -0.392462 
1       2.010450      -0.056715       4.121298 -0.0317302  -0.621136  -0.682641 
1       1.437658      -3.183488      -2.120489 -1.0624  0.517404  -0.0520491 
1      -2.321800       1.646013       1.721128 -0.264094  0.320713  -0.126819 
1      -3.697324      -1.144303       1.661721 0.411093  1.20373  0.0646797 
1       3.508633       4.119764      -2.719627 0.795857  -0.293443  0.390821 
1      -0.664357      -3.162469      -2.815631 0.941321  0.297382  -0.376682 
1      -0.535113      -3.940209      -2.394762 -0.657853  -0.273142  0.252955 
1       3.733144      -1.969475       2.492474 0.0913663  0.276978  0.116515 
1      -3.423192      -3.082507      -1.886611 -0.82665  0.351559  1.11499 
1      -3.844914      -3.784806      -1.707337 0.822869  0.412542  -1.40607 
1       1.017858       0.603205       0.955856 1.14681  0.178536  -1.54667 
1       3.328980       4.036398       2.248047 1.33271  1.14105  -1.13417 
1      -3.946453       3.849064      -1.934655 0.497293  -1.04492  -0.760579 
1      -2.866293      -1.759722      -3.289795 0.879321  -0.485566  -0.181734 
1       3.402123       3.543023      -0.471044 -0.37725  0.308241  0.0345998 
1       3.336809      -3.416572      -0.576531 -0.165093  0.474848  -0.708143 
1      -2.792827      -1.101871       2.448363 -1.02082  0.774133  -0.0941669 
1      -0.729396       3.945125       0.992396 -0.232603  0.776323  -1.35196 
1       0.133346       1.867894       0.520844 -0.922005  1.63668  0.61798 
1       4.160838       3.799907       1.941887 1.18807  1.98408  0.0195637 
1       2.918286      -0.257901      -1.980545 -1.72973  -0.165493  0.238193 
1      -3.118304       2.617046      -0.973161 -0.445635  0.738992  -0.628981 
1      -3.683476      -3.321547       3.938976 -0.0659237  0.623894  0.160768 
1      -0.672283       0.768499       1.937599 -0.228237  -0.154532  0.114755 
1      -1.143818       4.045641      -1.289950 0.772187  -1.01245  -0.443079 
1      -0.327288      -0.593074      -0.238914 -0.0249308  0.420602  -1.05518 
1       3.197098      -0.618503       3.126605 -1.05141  0.833479  1.17188 
1       1.657141      -3.883616       2.122589 0.729015  0.606428  -0.0896195 
1      -2.701747      -2.838679      -2.252544 -0.0553699  0.806485  0.172158 
1      -0.195144       3.950036      -4.078011 -1.97879  0.0968411  1.85899 
1       4.195419       1.482050      -0.888021 0.908349  0.521255  -1.18188 
1      -2.720725       0.901878       1.568479 -0.809802  -0.24712  -0.259246 
1      -0.553488       0.449720      -1.356098 0.879963  0.284574  -0.580933 
1       1.419464       0.199785      -2.889228 -0.966144  -0.0152804  0.534146 
1       0.019898      -3.550169       3.383634 0.682998  -0.149974  0.439555 
1      -3.190717       4.094714      -2.221704 -0.262647  0.390484  -0.201911 
1       1.704291       2.206315       1.931101 -0.47504  0.36074  -1.21922 
1       0.566281      -4.225370      -3.650674 -0.309112  -0.193695  0.319441 
1      -2.659192      -0.307995       2.745464 0.172422  0.606164  -0.488581 
1      -2.801541      -0.621579      -1.509034 0.00613428  0.0236747  -0.0981867 
1      -2.037585       1.616584      -2.106127 1.01438  -0.145434  -0.867829 
1      -4.036537       1.515272      -2.352754 -0.309008  0.368536  -1.52813 
1       3.085446      -1.462635       2.925138 -0.509653  -0.26674  -0.985489 
1      -3.304288       2.890475       4.135382 -0.064983  -0.0722112  0.769789 
1       3.132681       2.835549       1.218570 -1.06827  2.1522  -1.0815 
1       0.826215       1.632944       2.517924 0.257609  -0.763262  -0.271425 
1      -1.390464       2.926194       0.515937 1.14078  -0.77179  0.495892 
1       0.883059       3.685112       2.047199 0.665481  0.445804  0.53176 
1      -4.123586      -0.845440       0.055294 0.149102  0.958183  -0.444738 
1      -0.139190       3.189451      -2.605202 -1.08962  0.953959  0.327489 
1       0.504155      -0.959356       3.721199 0.871966  -0.646284  0.807852 
1       3.030560       3.801122      -1.954254 -0.341723  -1.01472  0.317688 
1      -0.422989       3.007030       4.104769 -0.754088  -0.373844  -0.505695 
1      -1.391458       1.671085       1.232308 -0.813269  0.0752828  0.297354 
1       3.248078      -2.058907      -3.291981 -0.875307  0.0226486  0.802183 
1      -1.950036      -1.956321      -3.447828 0.628087  -0.443642  1.51021 
1       0.543461      -0.613249      -1.949346 -0.538744  -1.20407  1.04846 
1       0.370660       2.678128       0.972479 -0.01175  0.310385  0.451012 
1       0.015528       2.350820       3.797286 -1.47105  0.239227  0.957052 
1      -1.832457       3.252206      -4.128644 0.140011  0.0264369  0.594584 
1       1.768040       3.667949       2.192401 0.93075  -0.465325  -1.72108 
1      -0.929267       2.785305      -2.597700 0.38095  0.441919  0.133352 
1      -2.016025      -1.885397       2.746905 0.165837  -0.037085  -0.866039 
1      -2.516455      -3.078940       3.875103 0.332011  0.0860584  -0.273599 
1      -1.332726       2.771695       3.338959 -0.337977  -0.585413  -0.498317 
1      -1.197137      -2.527985      -1.456226 0.13707  -1.90588  -0.00732684 
1      -0.728017       0.277387       2.869672 0.101671  -0.223015  0.605214 
1      -2.224325      -1.666760       1.916263 -0.450672  0.378586  0.672447 
1       3.931621       2.026210      -1.474806 0.102337  1.07331  1.13773 
1      -2.154662       1.928571       0.883639 -0.0267043  0.635285  -0.713026 
1      -2.415743      -3.514049       1.446228 0.324164  0.151484  0.519458 
1       0.201312      -3.530382      -4.099700 -0.181255  0.170769  0.143262 
1      -3.820607      -2.235646       2.711514 0.975293  -1.25617  -0.27248 
1       1.190840      -2.501266       0.749813 0.570709  0.0865957  0.243674 
1       0.957358      -1.071125      -0.935954 -0.79717  -1.19447  0.440306 
1       2.134556       4.148760      -3.916801 -0.96476  0.190411  0.722361 
1      -3.517239       3.255656       2.045002 -1.38039  0.144844  0.277527 
1       2.281813       2.144331      -1.778498 -0.327931  0.392514  -1.26115 
1      -0.357462      -0.355622       0.656872 -0.292216  1.56665  0.0565763 
1       3.244802      -0.329062      -3.569459 -0.872783  -1.07617  0.749724 
1       3.851781       0.707094       3.659682 0.0503855  -1.02102  -0.936584 
1      -3.431329       0.189763      -0.639259 0.472899  -0.806771  0.125454 
1       2.268973      -3.190199      -1.913270 -0.241954  -0.379244  -0.706017 
1       0.401715       1.319886      -0.187386 0.388409  -0.591959  0.250197 
1       1.005617       3.459997      -0.558378 -1.05383  -1.20311  0.0775178 
1      -3.588193       3.304662      -0.492303 -0.193747  -0.878571  -1.40779 
1       2.933099      -3.573764       2.425649 -0.327085  0.113461  0.580811 
1       1.613662      -1.400401       2.434870 -1.17844  -0.664413  -0.453868 
1      -1.139628      -3.881384      -3.104122 0.150538  0.76171  0.200655 
1       3.714132       4.102720       4.178350 0.715164  0.277896  1.14468 
1       3.292251      -0.352783       2.239599 0.0499909  -1.07032  1.26668 
1      -0.224988      -0.624223      -3.088319 0.754654  0.650486  0.0744953 
1       4.186065      -0.935060      -2.580368 0.133453  -1.1637  -0.612476 
1      -0.326889      -2.782894       1.040759 0.965811  -0.284  0.0868042 
1      -0.546436       2.128773      -1.977684 0.226872  -1.40255  0.984415 
1       0.829445       1.495772      -1.803300 -0.238597  0.294613  1.45323 
1       1.480971      -0.747311      -2.889564 -1.22239  0.354651  -0.956833 
1      -1.966617       0.234485      -2.824377 0.696509  -0.187018  -0.738189 
1       1.805877       3.542121       0.681457 0.0495131  0.142072  1.49592 
1      -3.379704      -2.807940      -0.480267 -0.674686  1.09128  -0.942659 
1       3.392235      -2.556502      -1.001558 -0.214098  -0.89638  -0.0192804 
1      -3.699656       1.720439      -1.574548 -0.501504  -1.08944  0.187235 
1      -3.342535      -2.886202       2.551964 -0.830438  0.653153  -0.33416 
1      -3.018587       4.079330      -0.579984 0.287838  -0.890555  -0.486418 
1       0.775469      -3.191537       1.095435 1.27631  0.444114  0.109849 
1      -1.676756       1.485963      -3.991043 0.104244  -0.102307  -0.122022 
1       1.982517      -0.440135       0.331891 0.118789  -0.4058  0.34884 
1      -0.852833      -3.376319       3.111818 -0.0174396  -0.0231358  -0.333706 
1      -0.191353      -0.369024      -1.120939 -0.268787  1.21335  -0.625857 
1      -3.885520      -3.086750      -1.126088 -0.639895  0.245311  -1.06646 
1      -1.727745      -3.558780      -0.185973 -0.892534  -0.789152  0.908571 
1      -3.626022       0.402787       4.121341 -0.125647  1.01551  -0.0896534 
1       3.040762      -1.699185       2.006807 0.637121  0.393917  0.707119 
1      -4.220577       3.067917       2.521762 -0.457588  -0.448595  0.481767 
1      -1.177106       2.160252       0.140715 -0.0270693  -0.303463  0.47408 
1       3.811891       4.135509      -1.584234 -0.242973  -0.922827  0.307915 
1       3.826415      -0.355687      -1.934644 0.30284  -1.63417  0.217258 
1      -3.436079      -2.719380      -2.702924 -1.77041  0.915738  0.249224 
1       2.879044       2.823901       3.437373 1.70756  0.181218  0.674883 
1      -2.005844       1.062061       1.056856 0.0119458  -0.394422  0.248216 
1       1.580796       1.052388      -3.285364 -0.557831  0.241673  0.132712 
1      -1.775143       2.172019       2.112879 0.296342  -0.876368  0.100316 
1      -0.610153       2.162121       3.315974 0.334429  0.29433  1.1035 
1       3.403676       1.265922      -1.489434 -1.23282  0.660934  -0.225999 
1       0.949428       3.036442       0.327705 0.335508  -0.435842  -0.539031 
1       1.379226      -0.282879      -1.312672 -0.749968  0.0981369  0.99596 
1       0.088949       4.147105      -1.935889 -0.304472  0.798534  0.279964 
1      -0.358535      -1.066431       4.067716 0.253451  -0.571778  -0.497421 
1       0.409450      -2.361991       2.231750 -0.330073  -1.05563  0.0408598 
1       2.065798      -0.229309      -2.033613 0.976576  0.550088  0.754607 
1       3.791772      -4.008558       1.525862 1.01393  -0.43631  -0.642452 
1      -2.679796      -2.562220       0.160393 -0.855758  -0.319036  0.182766 
1      -2.829607      -1.127334      -0.888855 1.20146  1.09724  0.598996 
1       2.473816       4.145990       1.893935 0.351983  -0.363376  -0.0264512 
1       0.214435       3.573679       1.349149 0.185501  -0.278594  -1.31807 
1       4.054678      -2.829255      -0.518713 -0.0895211  0.409471  -0.201791 
1       0.703325       3.708657      -2.810058 0.275318  -0.957821  0.722304 
1      -0.280251       3.689605       3.466272 -0.110151  0.702586  1.6909 
1      -3.665197       2.910286       1.250210 0.802865  0.675359  -0.451499 
1       0.197361      -2.219889       3.189924 -0.286469  -0.170963  1.80842 
1       3.403305       1.872213      -0.721210 1.20701  -0.577822  -0.466153 
1      -2.532121      -0.967131       4.175151 0.965373  -0.927123  1.03921 
1       1.913773       0.414104       2.725354 0.154046  -0.385157  -0.483136 
1      -0.001939      -1.701059       1.770515 0.54274  -0.328936  0.77402 
1      -2.771657       1.886799       0.145296 0.795146  -0.67209  0.633732 
1       3.849108      -2.233797       1.593235 0.394425  -0.370158  -0.16648 
1      -2.530603      -3.797176      -3.439078 -0.403714  1.18222  -0.139751 
1      -4.068577       1.382443       1.935165 0.918479  0.403349  -0.437326 
1      -1.144278      -1.538686       4.135655 1.37018  -0.761397  0.644435 
1       2.170247       0.260148       1.832768 -0.0185078  -0.709109  -0.640868 
1       3.162833      -2.605335      -0.125423 0.126797  -0.611892  0.0532976 
1       1.100543      -3.846758       2.857840 -0.705045  0.983387  -1.3411 
1       2.216166      -0.816945      -4.060162 1.03204  0.829028  0.234005 
1       4.059751      -3.680105      -3.228016 -0.830888  0.507578  1.37909 
1      -0.126069      -4.045043       0.443397 -0.76646  0.832718  1.61856 
1      -0.545132      -1.747218      -2.076230 -0.372153  0.746584  -0.285041 
1      -4.019677      -2.400348       3.838689 -0.888501  0.513493  0.0796338 
1      -0.569256      -1.096941       2.007784 -0.531276  -0.691257  0.425764 
1      -2.012015       1.378827       3.520257 -1.18695  -0.0692322  0.578516 
1      -1.778533       3.038265      -0.270809 0.535667  0.216181  1.45127 
1      -2.731384      -0.233440      -2.365190 -0.109636  0.358261  0.524393 
1      -3.636197      -0.994258       0.796824 -0.342299  1.32547  0.832931 
1       3.208767       0.951130      -4.014576 0.124103  1.25397  -0.361313 
1      -0.445966       0.606301      -2.433805 -1.74592  -0.181065  -0.11889 
1      -2.382425       1.028615      -1.529406 0.713456  0.149514  -1.22935 
1      -0.065853      -1.334161       3.308106 0.542008  1.12463  0.356303 
1       0.405992      -1.140402      -2.629545 0.225412  1.19559  0.0693168 
1      -1.922899       1.413051       2.609655 -0.306873  -0.244924  1.467 
1      -3.734694      -2.478424       1.801463 -0.162377  0.706069  -0.20779 
1       0.591749       2.760659      -2.650679 -1.16381  -1.23128  -0.998383 
1      -2.909120       2.740901       1.651471 0.982882  -0.0131177  0.925179 
1       1.549024      -3.481028      -3.753830 -0.783968  -0.0161589  -0.692689 
1       3.981422      -3.232257      -3.965946 -0.560867  -1.01203  2.12188 
1      -0.554233      -3.654173       1.174827 0.0797967  0.063065  -0.63281 
1      -3.707258       0.926504      -1.182192 0.833003  0.231564  -0.0897058 
1       1.298584       2.711771       1.190844 -1.16482  0.556739  0.670918 
1       0.068951       0.559707      -3.242842 -0.355081  0.574038  0.170306 
1       3.916244      -0.780664       1.755192 -1.12459  0.576006  0.452499 
1       1.155347      -1.548952       3.681037 -0.36338  1.3198  -0.952349 
1       0.421391       3.744125      -1.173396 0.498686  -0.695136  -0.452772 
1       3.146389      -2.855956      -1.919020 0.55396  0.696495  0.212988 
1       3.417493      -2.362231       0.770525 0.28392  0.964922  -0.127756 
1      -3.718045       3.798711       0.832367 -0.065459  0.355937  -1.18041 
1       3.986082       3.291566       1.024549 0.17982  1.06876  0.429374 
1      -4.189956       2.358788       2.923082 -0.834966  0.340485  0.0787933 
1       0.373445       0.070640       1.081387 0.192021  0.0905697  -0.733195 
1       0.618321      -2.171759       1.367279 -0.530597  0.409843  1.60217 
1       3.788392      -0.410785       0.598981 0.239351  0.252106  -0.143669 
1       2.959216      -2.302438       2.730787 -0.856181  -0.576039  -0.86472 
1      -1.554203      -2.235200       1.990607 -0.326379  0.493341  1.59054 
1       1.043603       3.446273      -3.619599 -0.740491  0.360008  -0.372818 
1      -2.575509       2.035782      -1.522682 1.17714  -0.0257238  -0.442881 
1       4.108700       0.910293      -2.933349 0.171028  0.693789  0.108244 
1       2.911912      -1.815977      -1.117324 0.64571  1.35507  0.514649 
1      -3.109829       2.834266      -2.993356 -0.519496  -0.191338  -1.29999 
1      -3.745995      -1.639099      -2.527954 1.0344  0.389503  0.404515 
1       1.003200      -0.002803       3.711827 -0.192266  0.13591  -0.386461 
1       1.340936       2.678862      -3.990807 0.349805  -1.24393  -1.15836 
1      -2.380496       2.494797       4.127901 -0.649592  0.0260332  -0.238699 
1      -0.494037       1.202709       2.691013 0.371049  0.334219  -0.464065 
1       1.821733       4.175797       1.325965 -0.470125  -1.16835  -1.31911 
1      -2.409884      -2.285877       3.448668 0.65698  -0.364385  0.347377 
1      -2.808490       0.381890      -0.076307 0.588266  -0.208092  -0.106622 
1       2.749349      -0.753870      -0.627053 0.102436  0.195902  -1.34547 
1      -0.464794      -2.824557       0.094829 -0.631115  0.0937528  1.23214 
1       1.323046      -2.302938      -2.293297 0.878602  0.812551  0.0448557 
1       1.813196      -3.953648      -2.165216 -1.41693  0.520049  -2.25606 
1       3.669204       2.809632      -1.046319 -0.401527  0.71037  0.668643 
1       3.065682       1.850531       1.549396 -0.543397  0.112401  -1.16694 
1       2.690296      -2.600228      -4.118017 0.30275  0.264545  -0.409132 
1      -3.072609       1.148849      -3.110514 0.214611  0.94346  0.81386 
1      -3.993847       2.995181       0.372058 -0.709304  -0.89901  -0.116945 
1       3.578776      -3.450502       2.974863 0.450466  0.301625  -0.403609 
1      -1.030362      -3.830475       0.382198 -0.100421  -0.0654445  -1.55875 
1      -1.552476       0.131679      -3.681881 -0.759685  0.379281  -0.087675 
1       1.246183       2.426797      -3.140404 -0.104157  0.097028  0.213026 
1      -3.049720       2.239641       0.863349 0.114752  -0.0153545  0.690815 
1       4.148429      -2.858218      -1.846704 1.03719  -0.72865  1.22654 
1      -2.709303       3.738781      -3.404900 -0.739006  -0.600384  -0.835456 
1       3.339011      -3.155369       3.788237 0.126037  0.182869  -0.0909596 
1      -3.429595      -0.627740       3.134542 -1.27193  -0.163724  1.18985 
1       1.050238       1.647667       3.382227 -0.0694046  -0.58906  -0.277624 
1      -2.743993       4.017673       0.623991 -0.296166  1.49406  0.323061 
1       0.682099      -0.458346      -3.125945 0.149554  0.996028  1.3044 
1      -2.840282       4.188923      -1.417248 0.152128  0.0293264  0.242928 
1       0.654060      -0.543069       2.243116 0.530408  0.491764  1.16911 
1      -1.983244       0.253031       3.996194 0.16082  -1.11961  -0.133319 
1      -2.946323       4.160954      -4.190743 -1.50168  0.152602  0.140951 
1      -2.256030      -1.301552      -1.655624 -0.110468  1.59774  0.597568 
1       1.910747      -1.708424       4.081352 -0.138859  -0.310252  -0.111096 
1      -1.692205      -0.132033       0.484473 -0.270251  0.361424  0.706853 
1      -0.339836      -0.416581       3.467323 1.34135  -0.740539  -0.522237 
1       2.793261       0.987174      -3.199587 -0.0766785  0.250068  0.928077 
1      -2.387513       0.103672       0.981758 1.10586  0.527719  -1.45769 
1      -0.967214      -0.711115       2.832064 -0.191996  0.112486  -1.67266 
1       4.050732       1.002044       2.739461 -0.870467  -0.758272  -0.226745 
1       0.443203       0.374427       1.950430 0.750418  -0.252151  -0.381314 
1       1.708518      -3.557782      -1.260964 -0.402802  0.585068  -0.248503 
1       3.487691       0.416512      -1.769363 -0.749487  1.578  0.345534 
1      -1.234186      -2.557872      -2.439249 0.828158  0.210957  -0.249932 
1       1.882815      -1.699658      -2.494815 0.490815  -0.494026  0.616527 
1       3.969019       2.198854       2.030450 -1.52856  -0.708781  0.135688 
1      -1.436721      -3.035187       2.461396 0.221575  0.44918  0.503501 
1       3.946269       3.818126      -3.496199 0.57043  0.726934  -0.439322 
1       3.015820      -0.816437       1.528619 -1.33291  -0.294185  -0.113057 
1       3.880191       2.836672      -1.954713 -0.210928  -0.131528  -0.268317 
1       2.928838       0.908041      -2.319478 0.28571  0.758625  -0.16741 
1       0.019034      -3.494467      -0.296767 0.345362  0.325076  0.155052 
1      -3.579283      -2.135559       0.189507 0.803061  1.17611  -1.07128 
1      -0.527032      -2.867533      -0.821633 0.878615  0.365469  -0.890478 
1      -0.419742       0.197597       4.142997 -0.475029  1.35369  1.12927 
1      -4.149165       2.662182       3.705817 -0.164515  -0.443024  0.145783 
1      -3.991760       3.973983      -2.832141 -0.566551  0.11107  -0.278639 
1      -0.501427      -1.790367      -3.754713 0.615942  0.530172  -1.19413 
1      -2.043296      -1.484928       3.550308 0.177292  -0.391996  0.607155 
1       0.255411       0.137861      -2.476568 -0.598584  0.825733  1.61177 
1      -2.785961       2.819863      -2.122024 -0.190743  0.334466  0.583598 
1      -0.805344      -1.101942      -2.661458 -0.140844  0.242707  0.862864 
1      -1.196891      -0.368792      -2.923429 -0.374448  -0.611699  0.437444 
1       0.793590      -2.838417      -3.786460 -0.0924261  0.150345  0.966083 
1      -3.192017       2.032775       3.765738 1.21002  0.0519175  0.710847 
1       0.549707       3.506149       3.188054 -0.0220913  -0.1428  -0.0911924 
1       1.653939       2.036026      -1.069274 -0.0141423  -0.109562  -0.42524 
1      -1.821088      -1.048135      -0.026346 0.256308  -0.962893  0.464327 
1       2.744925      -1.697276      -4.102160 -0.360535  0.183796  0.806969 
1       3.581333      -0.494616      -0.329784 1.2332  -0.370461  0.660133 
1       2.473462      -3.747593      -0.544913 -0.238653  0.646129  1.74619 
1      -4.100494      -2.950186       3.202250 0.890802  -0.825696  -0.427153 
1       3.271783       3.705818       0.665065 0.584092  -0.586452  -0.30739 
1       1.478279      -0.928274       3.134166 -0.331235  -0.29105  0.589509 
1      -0.888410       3.677697      -2.860479 1.44028  0.0873352  -0.377114 
1      -3.559846      -0.456901      -1.888169 -1.03605  -0.379756  -0.668444 
1       1.787354       3.339103      -0.141701 0.0431424  0.131109  0.470694 
1       0.566309      -3.985623       1.520449 -0.317948  0.349906  -0.36947 
1       2.290378      -3.797912      -3.197345 1.02258  0.139738  0.131053 
1       0.952972      -3.310291       2.004641 0.218725  -0.15043  -0.323756 
1       3.756360       0.126378      -4.115046 0.127907  -0.382852  0.638496 
1       1.429865      -4.118230       0.473496 0.590893  0.828749  -0.759934 
1       0.102854       1.794802      -1.307807 -1.24438  -0.21445  -0.101371 
1      -3.500999       3.275971      -2.420753 -0.203538  -0.307452  -0.562722 
1       1.177998      -1.746810      -3.907556 0.922206  0.00856971  0.698256 
1       2.186802       2.815662      -2.608284 -0.782239  -0.430849  -0.471862 
1      -3.050255       0.426225      -1.544356 -0.0540172  0.391354  -1.12972 
1       2.304067       3.702117       3.517092 -0.0606989  0.090946  0.369059 
1       2.757782      -2.982970       3.210665 -1.64848  0.250607  0.383545 
1       2.341996      -1.930103      -1.772849 0.500144  0.0737029  0.551593 
1      -3.872424      -0.258413       1.469000 0.146217  -0.529366  1.05405 
1       3.530858       0.014209       1.506346 0.43848  -0.69806  -0.097132 
1      -3.584739       2.129774       1.674578 0.0662392  -0.338839  0.724892 
1      -4.201156       2.086796       0.267230 -0.640585  -1.41192  -0.240896 
1      -1.073956       1.126317       0.246760 -1.563  -0.318098  0.0400153 
1       3.521287      -3.404368       1.026105 -0.613151  1.12208  -0.605016 
1      -0.826422      -0.991135      -3.585891 0.0188702  -1.36079  -0.158074 
1      -3.927128      -4.011757      -4.137640 -0.109284  0.32048  -0.767503 
1      -4.156579      -0.876535      -1.289534 0.33495  1.01037  1.01755 
1       2.538361       3.391351      -1.022061 0.805414  0.0899151  -0.491474 
1      -1.974498      -0.736405      -1.034751 -0.429625  -0.421372  -0.110559 
1       0.292349      -1.516989      -1.746991 0.383865  -0.662352  -0.789779 
1       1.960943       2.054492       0.357875 -0.096851  0.825564  1.51748 
1       1.228160      -3.253485       0.328491 0.258466  0.416048  -0.0899156 
1      -1.806096      -3.250244       3.225116 -0.436213  -0.488979  0.672151 
1       4.017921      -1.841445      -3.049009 -0.250893  0.187874  0.0182633 
1      -0.097436      -2.689205      -3.843103 -0.776901  -0.374995  0.000861554 
1       0.358970       2.950289      -3.929655 -0.160151  0.953208  -0.592012 
1       2.876154       0.207194       2.815601 0.451035  -0.33172  -0.826669 
1       1.375423       1.497280      -0.191219 0.429271  0.249874  -0.239748 
1      -1.431565      -1.336002       2.265706 -0.286289  -0.0723986  -0.296452 
1       0.132734       4.022313      -0.297089 0.168582  -0.362513  0.43117 
1      -1.467953       3.845118      -3.582408 0.165082  -0.266974  -0.266273 
1      -2.631319       1.667470      -3.720279 -0.426544  -0.301139  -0.371346 
1       0.309800      -2.771933      -0.622389 -0.096807  -0.296511  -0.512064 
1      -1.058435       0.274880       0.149458 -0.727291  0.679815  -0.196308 
1      -4.074563       1.828138       3.659185 0.668973  -0.412803  0.117752 
1       2.875461      -1.159509      -3.298579 0.0455127  -0.424737  0.94002 
1      -0.654976       3.315583       1.644878 1.01343  0.555087  0.423738 
1       0.777108       1.178940      -3.650709 -1.20661  -0.537603  -0.575748 
1       3.550187      -2.206331       4.048722 -0.178633  0.429996  -0.0413108 
1      -1.278502      -2.567147      -3.358186 0.146433  -0.0791656  -0.112767 
1       0.070646       0.855298      -4.152016 1.37204  0.449437  -0.590819 
1       1.336477      -3.382613       3.540588 -0.829223  0.597038  0.288791 
1       3.839842       1.320343       0.427954 -0.358409  1.19087  -0.0528467 
1       2.897300       2.671695      -0.533259 0.221229  0.117495  -1.40026 
1       3.094899       4.220138      -0.979052 -0.167906  0.503298  -0.327809 
1      -2.590963       3.676104       3.472748 0.704187  -0.511423  -0.142642 
1      -0.788653       1.679303       1.945453 0.981177  0.0122642  0.402157 
1      -3.083673      -0.780691      -3.614816 0.774226  1.03535  -0.16219 
1      -0.248037       4.143450       1.822253 -0.0329387  0.836024  -0.318583 
1      -1.259795       0.878797      -1.204890 -0.971174  -0.619334  0.477881 
1      -2.233700       3.907876      -1.979137 -0.144186  -0.350975  -0.698054 
1       2.324977       1.958930       2.609452 -0.583636  0.742794  0.752853 
1       0.356977       1.053703      -2.510786 0.12176  -0.595345  -0.561189 
1      -1.456611      -2.385179      -4.200383 1.02257  1.15385  -0.987461 
1       3.045990       0.976016       0.059146 0.73638  -0.615891  1.20332 
1      -0.423252       2.036239       1.207716 -0.0847423  -0.419398  0.592878 
1       3.205292      -0.263177      -1.202133 0.344056  -0.60588  -0.551664 
1       2.135751       2.384901      -3.573480 0.0773618  0.189121  0.512318 
1      -2.823946      -2.954632      -3.315423 -0.246981  -1.29858  0.323388 
1      -2.139246      -1.862087       0.420674 -0.242688  -0.526547  0.796687 
1      -2.353115       2.613384       0.352332 0.85769  0.731947  0.041087 
1       0.099297      -2.383225      -2.001049 -0.467062  0.105231  -0.276201 
1       2.538948       1.065521       1.682001 -0.270155  -0.669403  -0.359827 
1       0.673740      -2.799305      -1.473010 0.00508939  -0.63739  -0.963834 
1      -3.098130      -1.933798       2.144078 0.478365  1.11831  0.391537 
1      -2.167258       3.375937       0.664048 0.535337  -0.0283266  -0.705524 
1      -1.332107       0.311772       1.590001 -0.938233  0.168261  1.43111 
1       2.581530       3.808296      -2.721279 1.52868  1.18118  -0.456424 
1       2.700746       0.646911      -1.480975 -0.456199  1.03174  0.394376 
1      -2.860740       3.159968       2.608832 0.784846  0.0282333  -0.726407 
1       1.752020       3.603731      -2.418642 -0.173086  0.394597  1.20087 
1      -0.429028       0.871065       3.480928 0.362096  -0.930373  -0.52549 
1       0.513526      -1.204409      -3.526205 0.226421  -0.328514  0.520405 
1      -0.983028       1.771279      -3.517875 2.00565  -0.265703  -0.34849 
1       1.280517      -1.100655       0.269109 -0.251769  -0.48918  0.16348 
1       0.386752       0.559743       3.613488 -0.216018  -0.200374  -0.295598 
1       2.513772       1.112931       2.810456 -0.567613  0.190104  0.169105 
1       2.600483       1.601043      -2.660932 1.03045  -0.367999  -0.416604 
1       0.603650      -1.467470      -0.261666 1.10727  -1.13578  0.380956 
1       2.771817      -3.930185       0.763484 1.03308  0.35286  -0.075107 
1      -3.534845       1.239990      -3.858608 -0.0885264  0.304835  0.157043 
1       0.523187      -2.910875       3.792833 -0.0169625  0.325574  0.24332 
1       3.564448       0.469072       0.631892 -0.405979  -0.325164  -0.846672 
1      -4.065885      -4.144784       3.481052 -0.150525  -0.474976  -0.984084 
1      -1.859338      -2.939811      -2.003175 -0.153338  0.316026  -1.28383 
1      -2.476556       2.106777      -0.668975 0.333711  0.25129  0.733612 
1       2.194216       3.086331      -1.788265 0.185527  0.420258  0.958256 
1      -1.222461       2.499935       1.490494 -0.271684  0.176938  0.268197 
1      -1.893813       3.045536       1.795344 0.695431  -0.646132  -0.915622 
1       1.227318      -2.501819      -0.718084 0.714939  0.308326  -0.78873 
1      -3.959761       2.821152      -1.294847 0.23333  -0.453224  -0.215828 
1       0.943111       1.882827      -2.577007 -0.242714  -0.103784  1.02328 
1      -1.837099       4.117330       0.320644 -0.228631  -0.466702  0.00352722 
1      -2.250825      -0.869812       0.690809 -0.161037  -1.47105  -0.553015 
1      -1.350538      -3.739901      -1.952812 -0.815124  0.421433  0.538262 
1      -3.120839      -1.109037      -2.218539 -0.797496  -0.00819675  -0.767872 
1      -3.800547       0.559510       1.165042 0.37984  -0.243162  1.25236 
1      -3.359452      -0.293838       0.238821 0.544526  -0.695355  0.211111 
1       2.394912      -2.866711       2.139515 -0.257824  -0.905654  -0.479762 
1      -2.241103       0.760667      -3.709879 0.727437  -0.477656  -0.46575 
1      -1.978748      -1.963912      -0.563604 -0.849582  -0.711737  -1.30489 
1      -2.661736      -3.169297       3.081818 0.240882  -0.427668  -0.355996 
1      -3.438105      -1.850701       1.140395 0.137657  0.101418  -0.519631 
1       4.211700       1.791673      -3.236257 -1.34378  1.37022  0.087828 
1       1.556196      -3.801581      -0.345334 0.494159  0.128153  0.459138 
1       2.862151      -0.138104       4.136662 1.31581  -1.23067  0.277358 
1       2.320755       0.396217       0.107814 0.394638  -0.165204  -0.735034 
1      -3.181566      -1.056996      -0.069001 0.28381  0.279421  -0.99031 
1      -3.692058       1.306665       0.587875 0.786971  0.183887  1.46674 
1      -1.408380       1.891973       3.147718 -0.031356  0.516756  -0.180638 
1       2.503422       1.639819      -3.919024 -0.241692  0.487682  -0.540301 
1      -2.957478       0.284963       3.554435 -0.145091  -0.302139  -0.135697 
1       0.691056      -1.735816       0.593261 0.113677  -0.128558  0.694559 
1      -1.352181       2.023235      -2.440709 0.0215172  -0.430519  0.585676 
1      -0.239690       0.908686       0.326722 -0.336572  -0.0228664  -0.500669 
1       0.536402       3.434585      -1.984354 0.307419  1.38666  -0.586452 
1       0.871957      -1.598444       1.985641 -0.107215  0.137895  -0.680101 
1      -3.160589      -2.125496      -2.069576 0.130464  0.0818383  -0.577458 
1      -2.120996      -3.295827      -2.859917 0.56082  -1.09892  0.456708 
1       4.094114      -1.490884       4.039815 0.708392  -0.641542  -0.73873 
1       3.495966      -0.557594      -2.780038 0.400253  -0.00518368  0.2431 
1      -3.606349       0.661770      -2.539689 -0.0616028  -0.523171  0.791398 
1       2.633004      -2.072256       0.299581 0.0589524  0.421896  0.157891 
1       0.060668       1.437550       2.025625 -0.129349  0.904182  0.0724563 
1      -2.391796      -0.219469      -3.698809 -1.00571  0.394792  -0.718483 
1      -1.320783      -3.569937      -1.037706 -0.518245  1.01027  -0.650525 
1      -3.881938      -0.787939      -4.190523 0.358349  -0.779961  0.445383 
1       3.689478      -0.636588       4.046860 0.60097  0.0716136  -0.262119 
1       0.878124      -2.765459       3.035479 0.734082  0.0430516  -0.358858 
1      -0.454356      -2.058644      -1.308383 0.331857  0.363843  0.240627 
1       1.671874       2.942936      -1.074824 0.899059  -0.593422  1.35912 
1       4.169943       0.919874      -3.976170 -0.206372  0.565952  -0.553189 
1      -2.844769      -3.558702       2.171853 -0.43716  0.840775  0.720113 
1       1.306177       2.639627      -0.374631 -0.907734  1.53145  0.365095 
1       1.382213      -0.780710       3.967627 0.30192  -0.555601  1.16303 
1       2.335036      -2.001618      -3.419366 -1.0103  -0.682141  -0.659041 
1       1.900136       3.832151      -1.487307 0.732516  -0.106153  0.616712 
1      -0.483245       1.635166      -0.128809 -1.36514  -0.171104  0.0118286 
1      -1.043248      -0.994711      -1.734662 0.123738  0.502368  0.0968085 
1       4.205243      -1.880948       0.735657 -0.128746  0.310183  -0.0770676 
1      -1.912204      -2.907957      -0.785330 1.01436  0.221092  1.03929 
1      -0.594185      -3.719857      -1.506972 -0.379427  0.78977  0.107847 
1       0.671396      -3.916558       0.086749 -0.68576  1.34488  -0.705434 
1       4.143766      -3.841497       0.589604 1.36564  -0.212058  0.36922 
1      -1.515747       3.285169      -1.247308 -0.318487  -0.288611  0.233854 
1       1.825500      -2.689660      -3.843280 0.711867  1.20739  -0.721046 
1       3.882255      -1.678268      -0.888631 -0.269098  -0.23076  -0.392984 
1       3.426044      -1.529514       1.250903 0.392669  0.00369288  -0.631936 
1      -2.409306       3.307154      -2.720156 0.945659  -0.945036  1.15793 
1      -4.051593       2.646493      -3.814186 0.307913  0.359492  -0.858879 
1      -1.379058       2.881325       2.497302 -1.10895  0.0998552  0.11374 
1      -0.647807       0.428871       0.953049 -0.685749  0.276683  1.11127 
1      -2.230629       2.864279      -1.070263 1.29446  0.950725  0.204609 
1      -1.763818      -0.439050       1.320079 -0.573735  -0.414903  0.517053 
1      -3.052171      -1.975653      -0.516804 -0.797602  0.231478  0.14019 
1       2.542242       1.850389      -0.920667 -0.282673  0.329425  -0.602396 
1       2.448486      -1.083275      -2.158737 -1.20687  -0.00872864  -0.608396 
1       2.514352       3.827519       0.214162 -0.77683  -0.316814  1.00836 
1       3.782275       0.108798       2.947481 0.336243  -0.805624  0.256086 
1       1.239899       4.011664       3.498199 0.185563  0.437573  -0.306726 
1       2.389904       3.265117      -4.183145 -0.108484  0.611952  0.170895 
1      -1.487963      -1.573519      -2.224274 -0.493733  0.434423  -0.163864 
1       1.439535       1.187946       4.187531 0.0551039  -0.675531  0.0942851 
1      -4.114323      -0.088574      -2.777889 -0.142039  0.809583  -0.484081 
1      -0.426464       2.516094      -1.186285 -0.503832  -0.142739  0.158799 
1      -2.694778      -1.007991       3.366023 0.516072  0.937865  0.164532 
1       3.778399       2.790061      -0.174411 -0.00394458  -1.15866  -0.204047 
1       0.338873       0.261165      -1.603531 -0.0371315  -1.34798  -0.820223 
1       0.121478       3.155244      -0.561052 0.93834  0.860607  0.5855 
1      -2.219049      -1.132124      -3.416409 0.280472  1.18304  0.300501 
1       4.183330      -0.808626       3.328592 -0.569393  0.0177996  0.853039 
1      -3.916045      -1.295383       2.684131 -0.0999602  -0.510514  -0.95308 
1      -1.285719       1.568758      -0.539505 -0.12142  0.460124  0.395336 
1       3.216429       1.117275       1.082595 -0.0527888  -0.0999151  0.0456115 
1       0.366774      -0.881792       0.398508 0.479744  0.170575  -0.511181 
1       1.120739       4.062172      -1.867085 0.104195  -0.866999  0.937654 
1       1.436855      -0.382488      -3.701406 0.09543  -0.401186  -0.983768 
1      -2.526660      -3.612902      -1.945219 0.200598  -0.478568  -1.71916 
1       2.397951       2.889406       0.308643 0.428766  0.0578468  0.357103 
1      -3.310004       1.626232      -0.598234 -0.982132  1.1051  -0.10807 
1      -0.590244      -2.115516       3.618160 0.180233  0.201386  -0.473645 
1       2.679896       1.793941       3.429916 -1.2552  -0.795113  -0.859162 
1       0.638579      -1.977853      -0.987258 0.977153  -0.361435  -0.0331714 
1      -3.250750       2.021994      -3.201225 -0.70693  -0.0428579  0.343837 
1       3.216279      -3.328562      -3.411866 0.11415  0.457591  -0.0958035 
1      -3.762768       4.041712      -1.062290 -0.466478  -0.260937  0.000387126 
1       3.418309       1.119985       2.053619 0.167165  -0.068039  0.0351332 
1      -3.454763       1.857318       2.948964 -0.463725  -1.32688  0.690821 
1      -1.255539       0.982135       3.183008 0.0628217  -0.282193  -0.484592 
1       0.375512      -2.058565      -3.342678 -0.44602  1.44919  -0.821894 
1      -4.073445       3.523836       3.963178 0.704212  0.765472  1.16557 
1      -1.922309       0.511140      -0.162648 -0.437978  -1.07068  -0.336372 
1      -1.166632      -0.488649       1.978475 0.83697  0.528872  -0.691069 
1      -1.744696      -2.662251       0.022890 0.421063  0.749069  -0.195193 
1       1.059052       3.716294       1.138894 -0.822867  1.34183  0.65014 
1      -1.430779      -3.932641       2.781594 -0.108819  -0.610445  -0.612115 
1       2.841169      -3.385811      -2.555850 0.412633  0.176775  -0.758818 
1       4.220630       1.781188       1.139244 -0.708179  -0.729282  -0.439366 
1      -2.652816       1.966268       2.501859 -0.0147024  -1.25737  0.832641 
1      -0.681361      -1.146180       0.304722 0.795658  -0.473083  -1.10051 
1      -3.304236      -4.110083      -3.325905 0.0876264  -0.0141554  -0.232992 
1       3.997621      -2.942968       2.301063 0.770502  1.12614  0.612012 
1       0.870964       1.569349      -0.929775 -0.430899  -0.814705  -0.29207 
1       1.214526       1.024395      -2.501781 -0.659274  -1.05575  -0.703307 
1       3.523966       1.536809      -2.668971 -0.506093  0.2861  0.187259 
1       1.410659      -2.988308      -3.049956 -0.811087  0.429656  0.277926 
1       2.587178       4.139653       2.787068 -2.13126  0.397656  0.333462 
1       1.652595      -3.184730       1.176956 -0.848627  0.130741  -0.460182 
1      -0.755465       3.315109      -1.882275 0.889418  -0.150522  0.158034 
1       2.918363       2.151545      -3.210247 0.527588  1.18843  -0.431224 
1       0.377879       2.189008       2.917755 0.80091  -0.988396  0.318817 
1       2.158189      -2.349819      -0.999958 0.0561737  1.02183  -0.620294 
1       1.267178       0.079904       2.152036 -0.627285  0.0257158  -0.218243 
1       1.318276       2.402651       2.882385 0.662956  -0.267983  0.695538 
1       1.077308       2.188833       0.514034 0.0764456  -0.173295  -0.554105 
1      -0.939671       3.881782       2.422050 0.0881321  -0.187837  0.37062 
1       1.877035      -1.773221       0.722906 1.03006  0.0667625  -1.31439 
1      -1.746227       3.997579      -2.702296 -0.268672  -0.0689575  -0.202303 
1       2.520335       0.505912       3.537555 -0.434662  0.0585861  -0.861978 
1       2.388901       0.717858      -4.025275 0.623412  0.116705  0.717637 
1       2.341816      -1.308950      -0.050014 0.177168  1.25476  -0.313291 
1       1.198126      -0.366218       0.766208 -0.508459  0.809444  -0.086819 
1      -3.662882       0.531824       0.257647 -0.440275  1.68109  0.859842 
1      -0.940180      -0.917873      -0.832735 0.0722702  1.09307  -0.347669 
1      -3.904598      -0.501600       2.349805 0.0802315  -1.1256  -0.481773 
1       1.330641      -2.448989       3.775647 0.255075  -0.243853  0.24712 
1      -2.572430       1.178735      -0.330094 -0.763494  -0.234819  0.468366 
1      -0.885033      -2.870297       1.739765 -1.1617  -1.1754  -2.05992 
1       1.876719      -2.076308      -0.184559 -0.358488  0.382933  -0.731193 
1       1.069456      -1.450337      -2.065035 0.725701  -0.289649  -0.0310718 
1       1.614636      -3.137188       2.498058 0.0703361  0.825993  -0.812204 
1      -3.372498       0.341534       1.969833 -0.0196956  0.320335  0.0414684 
1      -3.164242       1.148069       2.286744 0.496152  0.334696  0.883745 
1       2.909035       2.325018       4.221517 0.410614  0.102154  -0.912546 
1       2.597938      -0.402860      -2.810821 -0.771626  -0.260728  -0.0563109 
1      -2.028044      -2.921608      -3.653708 -0.818449  -1.00559  -0.0833196 
1      -1.976846       3.895292       1.257018 -0.731417  0.200817  1.82534 
1      -0.471940       2.626752       0.555808 -0.0984891  -1.00125  -0.854375 
1       2.163670      -1.416641      -0.906241 0.618658  0.338142  1.11245 
1       2.053825       2.775787       2.571597 -1.07869  0.293185  -0.906266 
1       2.596623      -1.179750       3.645042 0.0121731  -0.271053  0.492555 
1      -3.855747       4.085389      -0.226585 1.22118  -0.629849  0.0872777 
1       1.692975      -1.014423       1.098682 0.0804376  -0.606222  1.12199 
1      -1.459847      -1.476036       0.731654 -0.618638  0.628752  -0.775769 
1       0.982998      -0.193927      -0.527347 -0.426015  1.47225  1.07485 
1      -2.508419      -3.905070       3.501689 -0.373686  0.373668  -0.0516562 
1      -3.390487      -1.635622      -3.915961 1.37742  -0.500397  1.13197 
1      -3.458632      -2.416800      -3.587156 -1.02666  -0.352935  1.34978 
1      -3.002866       2.801371       3.368147 0.754264  0.0910793  -0.0654858 
1      -0.397087      -0.043095       1.583702 0.345754  0.932523  0.264756 
1      -0.136663       2.908960       3.051476 -0.416906  -0.908201  -0.249322 
1      -4.126863      -3.750973       2.645152 1.24814  0.941083  0.00555055 
1       0.337281      -2.474624       0.426090 0.491614  0.0619924  -0.715229 
1      -2.367471       2.934557      -3.569643 0.554871  -0.94781  -0.651825 
1       3.517714       2.089173       3.550777 -0.56419  -0.0653388  -0.170747 
1      -1.657505       2.362448      -3.743410 -0.752568  0.438009  1.41556 
1      -2.230302       0.146782      -1.834350 -0.812684  0.696035  -0.119261 
1      -3.887867      -3.525037      -0.208188 0.720917  -0.322722  0.278592 
1       0.222601       0.348110      -0.636520 -0.134183  -1.52221  0.872967 
1       2.768914      -1.774830      -2.682133 0.640162  0.561638  1.11019 
1      -1.292386       1.143526      -2.432711 0.673689  -1.01176  -0.693902 
1       1.469822       1.809759      -3.722963 -0.0637279  0.515678  0.207999 
1      -1.364735      -0.264775      -0.437036 0.350293  0.181494  -0.418184 
1      -1.155269      -2.283748      -0.603850 0.768508  0.537063  0.364491 
1      -2.902119      -1.215293       1.501107 0.71391  -1.11592  -0.386343 
1      -2.574789       3.586165       1.850029 0.456526  0.641321  -1.13279 
1       2.249375       0.357275       0.988941 0.952764  -0.917008  -0.178824 
1       2.099660      -2.426903       2.874514 -0.852777  -0.372431  -0.296756 
1       1.420016       2.571296      -2.202158 1.42885  1.57821  1.04739 
1      -1.788237       3.952863       2.082085 -1.90175  1.01952  1.02829 
1       1.782895      -0.665137      -0.634809 -1.26367  0.0742039  0.515608 
1       2.594092       2.506163       1.859828 0.400204  -0.554954  -1.13431 
1       2.506330      -2.855222      -3.256355 -0.76945  -0.010347  0.371167 
1       1.799905       0.476463      -1.350414 -0.415925  1.12277  -0.323548 
1       2.322444      -0.974999       2.831666 -0.741547  -1.03891  0.118779 
1       3.208622       2.361759      -2.415826 0.379921  1.47878  -0.499763 
1      -2.556304       0.537125       2.480491 -0.446293  0.828835  1.81958 
1       2.731880      -3.300205       1.414684 -0.488948  0.129356  0.201818 
1      -3.915776      -1.158341      -3.394453 -0.515127  1.42788  0.169043 
1      -0.719411      -2.077383       0.572133 1.46285  -0.300456  -0.0633435 
1       0.998932       3.194242       3.861841 0.542463  0.408912  -1.21611 
1       3.995293      -1.805779       3.272198 -1.35232  -1.28871  0.130969 
1      -0.746704       2.900723      -0.202943 -0.344665  0.309216  0.964706 
1       2.126245       0.691005      -2.683447 0.541603  0.389312  -0.498666 
1      -1.141350       0.508006      -2.980227 0.203092  -0.0389378  0.00804863 
1       3.576281      -1.223792       0.214510 -0.0365939  1.77611  0.0115541 
1       3.623975       3.175619      -3.947947 0.873734  -0.585334  -0.145861 
1       2.881255      -3.854641       3.531608 0.352858  0.0781296  -0.613271 
1       3.592970      -2.053906      -1.643619 0.314127  -0.578289  0.633624 
1      -2.048476      -0.534741       3.591542 1.27932  -0.427991  0.0980029 
1      -1.423847      -2.249445       3.409954 0.148543  0.389294  0.154434 
1       0.762591       2.138766       1.813384 0.151901  -0.157271  1.1273 
1      -1.376948      -0.119597      -1.289847 -0.856323  -0.804708  0.0554255 
1      -2.182238       3.726265      -0.773601 0.886455  0.62033  1.14495 
1      -1.121387       0.346818      -1.991421 0.25704  -0.170104  1.54356 
1      -3.847112       0.466719       3.251204 -0.152509  -2.13499  0.263661 
1      -1.157320      -0.078093       3.551100 0.638495  -0.545044  -0.261164 
1       1.982137      -3.004614      -0.473402 0.0618684  -0.106565  0.693222 
1      -3.891052       2.496153      -0.457936 -0.975419  0.466197  -0.0942415 
1      -3.723757      -1.364190      -0.648215 -0.625865  -0.220405  -0.257784 
1      -3.403408       1.155664       3.590901 -1.09982  0.179881  0.360752 
1       4.016414       2.729513      -2.888741 -0.612356  1.31103  0.282822 
1      -2.284416      -1.606006      -2.586188 -0.115776  -1.10616  -0.885017 
1      -0.040401      -1.175116      -0.828852 -0.173743  -0.129186  0.272089 
1      -0.827486       1.734217      -1.226557 -0.102311  -0.284823  -1.39752 
1      -4.039804      -3.337230       1.313989 -0.0578034  0.112737  0.792628 
1       0.087214      -3.368015      -1.976053 -0.579255  0.891397  -0.346443 
1       3.244335      -2.864885       1.965665 0.530961  -0.91218  0.494086 
1      -3.406722      -3.939155       0.450349 0.158455  0.810936  1.29374 
1      -1.871585       1.454264      -3.100626 0.783266  -0.0325013  0.496222 
1       2.458263       2.199214       1.001348 -0.00985088  -1.67799  -0.000707275 
1       1.206169       2.906828       2.075645 0.268749  0.758884  0.241122 
1       2.684015      -2.138261       3.587293 -0.73404  0.179509  -0.985522 
1      -3.141115      -4.025038       1.301836 0.3745  0.00925444  -0.804638 
1       3.403568       2.498860       2.632468 0.201852  -0.202143  0.499922 
1      -2.957204       0.831705       0.738515 0.175652  -1.18958  0.69989 
1       2.107466       1.290871      -1.474581 0.101289  1.71056  -0.246581 
1      -3.725061       0.456858      -3.372761 -0.453991  -0.177787  -0.494634 
1      -1.135321       2.136707       4.045365 0.887184  0.852609  0.98364 
1       3.146016      -4.090233      -0.033647 -0.198988  -0.39059  0.730253 
1       1.136104       0.174117      -1.978076 -0.981785  -0.322568  -0.361026 
1       0.701027       0.181413       0.242153 -1.15152  0.186433  0.617615 
